{
   "_comment": "Nach /etc/chef/node.json kopieren und ggf. run_list anpassen.",

    "run_list": [ "ew" ],

    "chef_environment": "pre-production",

    "kommentar-lvm1": "Das echte Attribut heisst nur ew, also das :beispiel bei Bedarf entfernen!",

    "ew:beispiel-lvm1":{ "partitioning": { "lvm": { "vgs": {
        "system": {
            "lvs": {
                "name-des-logic-volumes": {
                    "size": "234m",
                    "filesystem": "ext4",
                    "mount_point": {
                        "location": "/mount-point",
                        "options": "noatime,nodev,nosuid,usrquota,grpquota,user_xattr",
                        "dump": 0,
                        "pass": 2
                    }
                }
            }
        }
    }}}},

    "kommentar-lvm2": "Um eines/mehrere der Vorgabe LVs zu überspringen, in der node.json die Definition durch false ersetzen:",

    "ew:beispiel-lvm2":{ "partitioning": { "lvm": { "vgs": {
        "system": {
            "lvs": {
                "name-des-logic-volumes": false
            }
        }
    }}}},

    "kommentar-users": "Password Hash für Benutzer festlegen",

    "ew:beispiel-users": {
        "users": {
            "benutzername": {
                "password_hash": "$1$SaltSalt$FSYmvnuDuSP883uWgYBXW/"
            }
        }
    }
}

